xidian_scale_fpga/ar0135_dvp_lvds/Efinity/Axi_waveform.vcd
#0 $dumpon
$date today $end
$timescale 1 ns $end
$scope module top $end
$var wire 1 0 cmos_frame_vsync $end
$var wire 1 1 cmos_frame_href $end
$var wire 8 2 cmos_frame_Gray $end
$var wire 11 3 hcnt $end
$var wire 11 4 vcnt $end
$var wire 32 5 aaddr $end
$var wire 8 6 alen $end
$var wire 1 7 avalid $end
$var wire 1 8 aready $end
$var wire 1 9 atype $end
$var wire 128 a wdata $end
$var wire 1 b wvalid $end
$var wire 1 c wready $end
$var wire 1 d wlast $end
$var wire 1 e bvalid $end
$var wire 1 f bready $end
$var wire 128 10 rdata $end
$var wire 1 11 rvalid $end
$var wire 1 12 rready $end
$var wire 1 13 rlast $end
$upscope $end
$enddefinitions $end
#0
$dumpvars
00
01
b00000000 2
b00000000000 3
b00000000000 4
b00000000000000101111110000000000 5
b00111111 6
07
18
19
b00000000000000010000001000000011000001000000010100000110000001110000100000001001000010100000101100001100000011010000111000001111 a
0b
1c
0d
0e
0f
b11101011101010011111111111111111110111100000000011011101100110010000000100101111100111001010100111011010000011011110100111110110 10
011
012
013
$end
#512
b00000000000000000000000000000000 5
17
09
#513
07
112
#531
b00000000000000010000001000000011000001000000010100000110000001110000100000001001000010100000101100001100000011010000111000001111 10
#533
111
#534
b00010000000100010001001000010011000101000001010100010110000101110001100000011001000110100001101100011100000111010001111000011111 10
011
#535
111
#536
b00100000001000010010001000100011001001000010010100100110001001110010100000101001001010100010101100101100001011010010111000101111 10
011
#537
111
#538
b00110000001100010011001000110011001101000011010100110110001101110011100000111001001110100011101100111100001111010011111000111111 10
011
#539
111
#540
b01000000010000010100001001000011010001000100010101000110010001110100100001001001010010100100101101001100010011010100111001001111 10
011
#541
111
#542
b01010000010100010101001001010011010101000101010101010110010101110101100001011001010110100101101101011100010111010101111001011111 10
011
#543
111
#544
b01100000011000010110001001100011011001000110010101100110011001110110100001101001011010100110101101101100011011010110111001101111 10
011
#545
111
#546
b01110000011100010111001001110011011101000111010101110110011101110111100001111001011110100111101101111100011111010111111001111111 10
#547
b10000000100000011000001010000011100001001000010110000110100001111000100010001001100010101000101110001100100011011000111010001111 10
#548
b10010000100100011001001010010011100101001001010110010110100101111001100010011001100110101001101110011100100111011001111010011111 10
011
#549
111
#550
b10100000101000011010001010100011101001001010010110100110101001111010100010101001101010101010101110101100101011011010111010101111 10
011
#551
111
#552
b10110000101100011011001010110011101101001011010110110110101101111011100010111001101110101011101110111100101111011011111010111111 10
011
#553
111
#554
b11000000110000011100001011000011110001001100010111000110110001111100100011001001110010101100101111001100110011011100111011001111 10
011
#555
111
#556
b11010000110100011101001011010011110101001101010111010110110101111101100011011001110110101101101111011100110111011101111011011111 10
011
#557
111
#558
b11100000111000011110001011100011111001001110010111100110111001111110100011101001111010101110101111101100111011011110111011101111 10
#559
b11110000111100011111001011110011111101001111010111110110111101111111100011111001111110101111101111111100111111011111111011111111 10
011
#560
111
#561
b00000000000000010000001000000011000001000000010100000110000001110000100000001001000010100000101100001100000011010000111000001111 10
011
#562
111
#563
b00010000000100010001001000010011000101000001010100010110000101110001100000011001000110100001101100011100000111010001111000011111 10
011
#564
111
#565
b00100000001000010010001000100011001001000010010100100110001001110010100000101001001010100010101100101100001011010010111000101111 10
011
#566
111
#567
b00110000001100010011001000110011001101000011010100110110001101110011100000111001001110100011101100111100001111010011111000111111 10
#568
b01000000010000010100001001000011010001000100010101000110010001110100100001001001010010100100101101001100010011010100111001001111 10
011
#569
111
#570
b01010000010100010101001001010011010101000101010101010110010101110101100001011001010110100101101101011100010111010101111001011111 10
011
#571
111
#572
b01100000011000010110001001100011011001000110010101100110011001110110100001101001011010100110101101101100011011010110111001101111 10
#573
b01110000011100010111001001110011011101000111010101110110011101110111100001111001011110100111101101111100011111010111111001111111 10
011
#574
111
#575
b10000000100000011000001010000011100001001000010110000110100001111000100010001001100010101000101110001100100011011000111010001111 10
011
#577
111
#578
b10010000100100011001001010010011100101001001010110010110100101111001100010011001100110101001101110011100100111011001111010011111 10
#579
b10100000101000011010001010100011101001001010010110100110101001111010100010101001101010101010101110101100101011011010111010101111 10
011
#580
111
#581
b10110000101100011011001010110011101101001011010110110110101101111011100010111001101110101011101110111100101111011011111010111111 10
#582
b11000000110000011100001011000011110001001100010111000110110001111100100011001001110010101100101111001100110011011100111011001111 10
011
#583
111
#584
b11010000110100011101001011010011110101001101010111010110110101111101100011011001110110101101101111011100110111011101111011011111 10
011
#585
111
#586
b11100000111000011110001011100011111001001110010111100110111001111110100011101001111010101110101111101100111011011110111011101111 10
#587
b11110000111100011111001011110011111101001111010111110110111101111111100011111001111110101111101111111100111111011111111011111111 10
011
#588
111
#589
b00000000000000010000001000000011000001000000010100000110000001110000100000001001000010100000101100001100000011010000111000001111 10
011
#590
111
#591
b00010000000100010001001000010011000101000001010100010110000101110001100000011001000110100001101100011100000111010001111000011111 10
011
#592
111
#593
b00100000001000010010001000100011001001000010010100100110001001110010100000101001001010100010101100101100001011010010111000101111 10
011
#594
111
#595
b00110000001100010011001000110011001101000011010100110110001101110011100000111001001110100011101100111100001111010011111000111111 10
011
#596
111
#597
b01000000010000010100001001000011010001000100010101000110010001110100100001001001010010100100101101001100010011010100111001001111 10
#598
b01010000010100010101001001010011010101000101010101010110010101110101100001011001010110100101101101011100010111010101111001011111 10
011
#599
111
#600
b01100000011000010110001001100011011001000110010101100110011001110110100001101001011010100110101101101100011011010110111001101111 10
011
#601
111
#602
b01110000011100010111001001110011011101000111010101110110011101110111100001111001011110100111101101111100011111010111111001111111 10
011
#603
111
#604
b10000000100000011000001010000011100001001000010110000110100001111000100010001001100010101000101110001100100011011000111010001111 10
#605
b10010000100100011001001010010011100101001001010110010110100101111001100010011001100110101001101110011100100111011001111010011111 10
011
#606
111
#607
b10100000101000011010001010100011101001001010010110100110101001111010100010101001101010101010101110101100101011011010111010101111 10
#608
b10110000101100011011001010110011101101001011010110110110101101111011100010111001101110101011101110111100101111011011111010111111 10
011
#609
111
#610
b11000000110000011100001011000011110001001100010111000110110001111100100011001001110010101100101111001100110011011100111011001111 10
011
#611
111
#612
b11010000110100011101001011010011110101001101010111010110110101111101100011011001110110101101101111011100110111011101111011011111 10
011
#613
111
#614
b11100000111000011110001011100011111001001110010111100110111001111110100011101001111010101110101111101100111011011110111011101111 10
011
#615
111
#616
b11110000111100011111001011110011111101001111010111110110111101111111100011111001111110101111101111111100111111011111111011111111 10
011
#617
111
#618
b00000000000000010000001000000011000001000000010100000110000001110000100000001001000010100000101100001100000011010000111000001111 10
#619
b00010000000100010001001000010011000101000001010100010110000101110001100000011001000110100001101100011100000111010001111000011111 10
011
#620
111
#621
b00100000001000010010001000100011001001000010010100100110001001110010100000101001001010100010101100101100001011010010111000101111 10
011
#622
111
#623
b00110000001100010011001000110011001101000011010100110110001101110011100000111001001110100011101100111100001111010011111000111111 10
011
#624
111
#625
b01000000010000010100001001000011010001000100010101000110010001110100100001001001010010100100101101001100010011010100111001001111 10
#626
b01010000010100010101001001010011010101000101010101010110010101110101100001011001010110100101101101011100010111010101111001011111 10
011
#628
111
#629
b01100000011000010110001001100011011001000110010101100110011001110110100001101001011010100110101101101100011011010110111001101111 10
#630
b01110000011100010111001001110011011101000111010101110110011101110111100001111001011110100111101101111100011111010111111001111111 10
#631
b10000000100000011000001010000011100001001000010110000110100001111000100010001001100010101000101110001100100011011000111010001111 10
011
#632
111
#633
b10010000100100011001001010010011100101001001010110010110100101111001100010011001100110101001101110011100100111011001111010011111 10
011
#634
111
#635
b10100000101000011010001010100011101001001010010110100110101001111010100010101001101010101010101110101100101011011010111010101111 10
011
#636
111
#637
b10110000101100011011001010110011101101001011010110110110101101111011100010111001101110101011101110111100101111011011111010111111 10
011
#638
111
#639
b11000000110000011100001011000011110001001100010111000110110001111100100011001001110010101100101111001100110011011100111011001111 10
#640
b11010000110100011101001011010011110101001101010111010110110101111101100011011001110110101101101111011100110111011101111011011111 10
011
#641
111
#642
b11100000111000011110001011100011111001001110010111100110111001111110100011101001111010101110101111101100111011011110111011101111 10
011
#643
111
#644
b11110000111100011111001011110011111101001111010111110110111101111111100011111001111110101111101111111100111111011111111011111111 10
011
113
#645
111
#646
b11000000110000011100001011000011110001001100010111000110110001111100100011001001110010101100101111001100110011011100111011001111 10
011
012
013
#647
b00000000000000000000010000000000 5
17
#648
07
112
#665
b00000000000000010000001000000011000001000000010100000110000001110000100000001001000010100000101100001100000011010000111000001111 10
#666
111
#667
b00010000000100010001001000010011000101000001010100010110000101110001100000011001000110100001101100011100000111010001111000011111 10
#668
b00100000001000010010001000100011001001000010010100100110001001110010100000101001001010100010101100101100001011010010111000101111 10
#669
b00110000001100010011001000110011001101000011010100110110001101110011100000111001001110100011101100111100001111010011111000111111 10
#670
b01000000010000010100001001000011010001000100010101000110010001110100100001001001010010100100101101001100010011010100111001001111 10
#671
b01010000010100010101001001010011010101000101010101010110010101110101100001011001010110100101101101011100010111010101111001011111 10
#672
b01100000011000010110001001100011011001000110010101100110011001110110100001101001011010100110101101101100011011010110111001101111 10
#673
b01110000011100010111001001110011011101000111010101110110011101110111100001111001011110100111101101111100011111010111111001111111 10
#674
b01000000010000010100001001000011010001000100010101000110010001110100100001001001010010100100101101001100010011010100111001001111 10
011
#679
b10000000100000011000001010000011100001001000010110000110100001111000100010001001100010101000101110001100100011011000111010001111 10
#680
111
#681
b10010000100100011001001010010011100101001001010110010110100101111001100010011001100110101001101110011100100111011001111010011111 10
#682
b10100000101000011010001010100011101001001010010110100110101001111010100010101001101010101010101110101100101011011010111010101111 10
#683
b10110000101100011011001010110011101101001011010110110110101101111011100010111001101110101011101110111100101111011011111010111111 10
#684
b11000000110000011100001011000011110001001100010111000110110001111100100011001001110010101100101111001100110011011100111011001111 10
#685
b11010000110100011101001011010011110101001101010111010110110101111101100011011001110110101101101111011100110111011101111011011111 10
#686
b11100000111000011110001011100011111001001110010111100110111001111110100011101001111010101110101111101100111011011110111011101111 10
#687
b11110000111100011111001011110011111101001111010111110110111101111111100011111001111110101111101111111100111111011111111011111111 10
#688
b11000000110000011100001011000011110001001100010111000110110001111100100011001001110010101100101111001100110011011100111011001111 10
011
#692
b11000000110000011000001000000011100001000000010111000110110001111100100011001001110010100100101111001100010011011000111011001111 10
#693
b00000000000000010000001000000011000001000000010100000110000001110000100000001001000010100000101100001100000011010000111000001111 10
#694
111
#695
b00010000000100010001001000010011000101000001010100010110000101110001100000011001000110100001101100011100000111010001111000011111 10
#696
b00100000001000010010001000100011001001000010010100100110001001110010100000101001001010100010101100101100001011010010111000101111 10
#697
b00110000001100010011001000110011001101000011010100110110001101110011100000111001001110100011101100111100001111010011111000111111 10
#698
b01000000010000010100001001000011010001000100010101000110010001110100100001001001010010100100101101001100010011010100111001001111 10
#699
b01010000010100010101001001010011010101000101010101010110010101110101100001011001010110100101101101011100010111010101111001011111 10
#700
b01100000011000010110001001100011011001000110010101100110011001110110100001101001011010100110101101101100011011010110111001101111 10
#701
b01110000011100010111001001110011011101000111010101110110011101110111100001111001011110100111101101111100011111010111111001111111 10
#702
b01000000010000010100001001000011010001000100010101000110010001110100100001001001010010100100101101001100010011010100111001001111 10
011
#706
b10000000110000011000001010000011100001001000010110000110100001111000100010001001100010101000101110001100100011011000111010001111 10
#707
b10000000100000011000001010000011100001001000010110000110100001111000100010001001100010101000101110001100100011011000111010001111 10
#708
111
#709
b10010000100100011001001010010011100101001001010110010110100101111001100010011001100110101001101110011100100111011001111010011111 10
#710
b10100000101000011010001010100011101001001010010110100110101001111010100010101001101010101010101110101100101011011010111010101111 10
#711
b10110000101100011011001010110011101101001011010110110110101101111011100010111001101110101011101110111100101111011011111010111111 10
#712
b11000000110000011100001011000011110001001100010111000110110001111100100011001001110010101100101111001100110011011100111011001111 10
#713
b11010000110100011101001011010011110101001101010111010110110101111101100011011001110110101101101111011100110111011101111011011111 10
#714
b11100000111000011110001011100011111001001110010111100110111001111110100011101001111010101110101111101100111011011110111011101111 10
#715
b11110000111100011111001011110011111101001111010111110110111101111111100011111001111110101111101111111100111111011111111011111111 10
#716
b11000000110000011100001011000011110001001100010111000110110001111100100011001001110010101100101111001100110011011100111011001111 10
011
#720
b00000000000000010000001000000011000001000000010100000110000001110000100000001001000010100000101100001100000011010000111000001111 10
#722
111
#723
b00010000000100010001001000010011000101000001010100010110000101110001100000011001000110100001101100011100000111010001111000011111 10
#724
b00100000001000010010001000100011001001000010010100100110001001110010100000101001001010100010101100101100001011010010111000101111 10
#725
b00110000001100010011001000110011001101000011010100110110001101110011100000111001001110100011101100111100001111010011111000111111 10
#726
b01000000010000010100001001000011010001000100010101000110010001110100100001001001010010100100101101001100010011010100111001001111 10
#727
b01010000010100010101001001010011010101000101010101010110010101110101100001011001010110100101101101011100010111010101111001011111 10
#728
b01100000011000010110001001100011011001000110010101100110011001110110100001101001011010100110101101101100011011010110111001101111 10
#729
b01110000011100010111001001110011011101000111010101110110011101110111100001111001011110100111101101111100011111010111111001111111 10
#730
b01000000010000010100001001000011010001000100010101000110010001110100100001001001010010100100101101001100010011010100111001001111 10
011
#734
b10000000100000011000001010000011100001001000010110000110100001111000100010001001100010101000101110001100100011011000111010001111 10
#736
111
#737
b10010000100100011001001010010011100101001001010110010110100101111001100010011001100110101001101110011100100111011001111010011111 10
#738
b10100000101000011010001010100011101001001010010110100110101001111010100010101001101010101010101110101100101011011010111010101111 10
#739
b10110000101100011011001010110011101101001011010110110110101101111011100010111001101110101011101110111100101111011011111010111111 10
#740
b11000000110000011100001011000011110001001100010111000110110001111100100011001001110010101100101111001100110011011100111011001111 10
#741
b11010000110100011101001011010011110101001101010111010110110101111101100011011001110110101101101111011100110111011101111011011111 10
#742
b11100000111000011110001011100011111001001110010111100110111001111110100011101001111010101110101111101100111011011110111011101111 10
#743
b11110000111100011111001011110011111101001111010111110110111101111111100011111001111110101111101111111100111111011111111011111111 10
#744
b11000000110000011100001011000011110001001100010111000110110001111100100011001001110010101100101111001100110011011100111011001111 10
011
#748
b00000000000000010000001000000011000001000000010100000110000001110000100000001001000010100000101100001100000011010000111000001111 10
#750
111
#751
b00010000000100010001001000010011000101000001010100010110000101110001100000011001000110100001101100011100000111010001111000011111 10
#752
b00100000001000010010001000100011001001000010010100100110001001110010100000101001001010100010101100101100001011010010111000101111 10
#753
b00110000001100010011001000110011001101000011010100110110001101110011100000111001001110100011101100111100001111010011111000111111 10
#754
b01000000010000010100001001000011010001000100010101000110010001110100100001001001010010100100101101001100010011010100111001001111 10
#755
b01010000010100010101001001010011010101000101010101010110010101110101100001011001010110100101101101011100010111010101111001011111 10
#756
b01100000011000010110001001100011011001000110010101100110011001110110100001101001011010100110101101101100011011010110111001101111 10
#757
b01110000011100010111001001110011011101000111010101110110011101110111100001111001011110100111101101111100011111010111111001111111 10
#758
b01000000010000010100001001000011010001000100010101000110010001110100100001001001010010100100101101001100010011010100111001001111 10
011
#762
b10000000100000011000001010000011100001001000010110000110100001111000100010001001100010101000101110001100100011011000111010001111 10
#764
111
#765
b10010000100100011001001010010011100101001001010110010110100101111001100010011001100110101001101110011100100111011001111010011111 10
#766
b10100000101000011010001010100011101001001010010110100110101001111010100010101001101010101010101110101100101011011010111010101111 10
#767
b10110000101100011011001010110011101101001011010110110110101101111011100010111001101110101011101110111100101111011011111010111111 10
#768
b11000000110000011100001011000011110001001100010111000110110001111100100011001001110010101100101111001100110011011100111011001111 10
#769
b11010000110100011101001011010011110101001101010111010110110101111101100011011001110110101101101111011100110111011101111011011111 10
#770
b11100000111000011110001011100011111001001110010111100110111001111110100011101001111010101110101111101100111011011110111011101111 10
#771
b11110000111100011111001011110011111101001111010111110110111101111111100011111001111110101111101111111100111111011111111011111111 10
113
#772
b11000000110000011100001011000011110001001100010111000110110001111100100011001001110010101100101111001100110011011100111011001111 10
011
012
013
#1023
00
01
b00000000 2
b00000000000 3
b00000000000 4
b00000000000000000000010000000000 5
b00111111 6
07
18
09
b00000000000000010000001000000011000001000000010100000110000001110000100000001001000010100000101100001100000011010000111000001111 a
0b
1c
0d
0e
0f
b11000000110000011100001011000011110001001100010111000110110001111100100011001001110010101100101111001100110011011100111011001111 10
011
012
013
