xidian_scale_fpga/ar0135_dvp_lvds/Efinity/la0_waveform.vcd
#0 $dumpon
$date today $end
$timescale 1 ns $end
$scope module top $end
$var wire 1 0 u_axi4_ctrl/rframe_vsync $end
$var wire 1 1 u_axi4_ctrl/rframe_data_en $end
$var wire 8 2 u_axi4_ctrl/rframe_data $end
$upscope $end
$enddefinitions $end
#0
$dumpvars
10
11
b01100010 2
$end
#1
b01100100 2
#2
b01100000 2
#4
b01100010 2
#6
b01011101 2
#7
b01100101 2
#8
b01100001 2
#9
b01011101 2
#10
b01100001 2
#11
b01100000 2
#12
b01011110 2
#13
b01100010 2
#15
b01100000 2
#16
b01011101 2
#17
b01011100 2
#19
b01011001 2
#20
b01011010 2
#22
b01011101 2
#23
b01010111 2
#24
b01011000 2
#25
b01010110 2
#26
b01010111 2
#27
b01011001 2
#28
b01010110 2
#29
b01011010 2
#30
b01011000 2
#32
b01010111 2
#33
b01011001 2
#34
b01010101 2
#35
b01010111 2
#39
b01010100 2
#40
b01010011 2
#41
b01010000 2
#42
b01010110 2
#43
b01010111 2
#44
b01010101 2
#45
b01010110 2
#46
b01010101 2
#47
b01010001 2
#49
b01010011 2
#50
b01011000 2
#51
b01011010 2
#52
b01010010 2
#53
b01011000 2
#54
b01010001 2
#55
b01010110 2
#57
b01010101 2
#58
b01010110 2
#59
b01010010 2
#60
b01011001 2
#61
b01010111 2
#62
b01011011 2
#63
b01010111 2
#64
b01010110 2
#65
b01011000 2
#66
b01010101 2
#67
b01010111 2
#68
b01011001 2
#69
b01010111 2
#70
b01010110 2
#71
b01010111 2
#72
b01010100 2
#73
b01010111 2
#74
b01010100 2
#75
b01010101 2
#76
b01010011 2
#77
b01011011 2
#78
b01010011 2
#79
b01011001 2
#80
b01010101 2
#81
b01011001 2
#82
b01010101 2
#85
b01010011 2
#86
b01010111 2
#87
b01010011 2
#88
b01011001 2
#90
b01011010 2
#91
b01010111 2
#92
b01010110 2
#93
b01011001 2
#94
b01011000 2
#95
b01010101 2
#96
b01010111 2
#97
b01011011 2
#98
b01010111 2
#99
b01011001 2
#100
b01011010 2
#101
b01011000 2
#103
b01011001 2
#104
b01010111 2
#106
b01010110 2
#107
b01010111 2
#108
b01010110 2
#109
b01011001 2
#110
b01010111 2
#111
b01010100 2
#112
b01011001 2
#113
b01011000 2
#114
b01010110 2
#115
b01010111 2
#116
b01010101 2
#117
b01010110 2
#118
b01010101 2
#119
b01011000 2
#120
b01011001 2
#121
b01010101 2
#122
b01010110 2
#124
b01010111 2
#125
b01011001 2
#127
b01010101 2
#128
b01011001 2
#129
b01010110 2
#130
b01010111 2
#131
b01010101 2
#132
b01011010 2
#133
b01011000 2
#134
b01011010 2
#135
b01011001 2
#136
b01011010 2
#137
b01010111 2
#138
b01011001 2
#139
b01010010 2
#140
b01011000 2
#141
b01010100 2
#142
b01010101 2
#143
b01010100 2
#144
b01010101 2
#146
b01010011 2
#147
b01010110 2
#148
b01010000 2
#149
b01010111 2
#150
b01010011 2
#151
b01010100 2
#152
b01010110 2
#153
b01010001 2
#154
b01010010 2
#155
b01010011 2
#156
b01010000 2
#157
b01010011 2
#159
b01010001 2
#160
b01010000 2
#161
b01001100 2
#162
b01001011 2
#163
b01001001 2
#164
b01000010 2
#165
b00111011 2
#166
b00111000 2
#167
b00111001 2
#168
b00110011 2
#169
b00101110 2
#170
b00101010 2
#171
b00101000 2
#172
b00100011 2
#173
b00100001 2
#174
b00100011 2
#175
b00100001 2
#176
b00100010 2
#177
b00100100 2
#178
b00100010 2
#179
b00011110 2
#180
b00011011 2
#181
b00010111 2
#182
b00010101 2
#183
b00010011 2
#184
b00010001 2
#185
b00010010 2
#188
b00010100 2
#190
b00010111 2
#191
b00011000 2
#192
b00011001 2
#193
b00011011 2
#195
b00011100 2
#196
b00011111 2
#197
b00100001 2
#199
b00100110 2
#200
b00101001 2
#203
b00101011 2
#205
b00101101 2
#206
b00101011 2
#207
b00101110 2
#208
b00110001 2
#209
b00101111 2
#211
b00110011 2
#212
b00110000 2
#213
b00110010 2
#214
b00101100 2
#215
b00101101 2
#217
b00101001 2
#218
b00101010 2
#219
b00100111 2
#221
b00100110 2
#222
b00101000 2
#223
b00100110 2
#224
b00101010 2
#226
b00101011 2
#227
b00101001 2
#228
b00101111 2
#229
b00110000 2
#230
b00101111 2
#232
b00110000 2
#233
b00110010 2
#234
b00110001 2
#235
b00110011 2
#237
b00101101 2
#238
b00101110 2
#239
b00101111 2
#240
b00101110 2
#241
b00110001 2
#242
b00101110 2
#243
b00101111 2
#244
b00101011 2
#246
b00101101 2
#247
b00101011 2
#248
b00101110 2
#249
b00101100 2
#250
b00110000 2
#251
b00101100 2
#253
b00101110 2
#254
b00110001 2
#255
b00101110 2
#256
b00101100 2
#257
b00101110 2
#258
b00101101 2
#260
b00101111 2
#262
b00101110 2
#263
b00110001 2
#265
b00110000 2
#267
b00101110 2
#268
b00101100 2
#269
b00110000 2
#270
b00101101 2
#271
b00101110 2
#272
b00101011 2
#273
b00101101 2
#274
b00110000 2
#275
b00101011 2
#276
b00101101 2
#277
b00101011 2
#278
b00101010 2
#280
b00101011 2
#281
b00101100 2
#282
b00101000 2
#283
b00101001 2
#284
b00101101 2
#285
b00101010 2
#286
b00101100 2
#288
b00101010 2
#290
b00101001 2
#292
b00100111 2
#293
b00101011 2
#294
b00101001 2
#295
b00100110 2
#296
b00100111 2
#297
b00100011 2
#299
b00100110 2
#300
b00100101 2
#301
b00100111 2
#302
b00101100 2
#303
b00101010 2
#304
b00101101 2
#306
b00101111 2
#307
b00101110 2
#309
b00110000 2
#310
b00101110 2
#311
b00101111 2
#312
b00110011 2
#313
b00110000 2
#315
b00101110 2
#316
b00110010 2
#317
b00101011 2
#318
b00110001 2
#319
b00101111 2
#320
b00101101 2
#321
b00110000 2
#322
b00110101 2
#323
b00101111 2
#324
b00110100 2
#325
b00110110 2
#326
b00111001 2
#327
b00110111 2
#328
b00111010 2
#329
b00111011 2
#330
b00111101 2
#331
b00111010 2
#332
b00110111 2
#333
b00111101 2
#334
b00111011 2
#335
b00110111 2
#336
b00111001 2
#337
b00110111 2
#338
b00111011 2
#339
b00110100 2
#340
b00110101 2
#341
b00110110 2
#343
b00110100 2
#344
b00110111 2
#345
b00110101 2
#346
b00110111 2
#347
b00111001 2
#348
b00110111 2
#350
b00110110 2
#351
b00111010 2
#352
b00111001 2
#354
b00111011 2
#355
b00111010 2
#356
b00111110 2
#357
b00111101 2
#360
b00111100 2
#361
b00111011 2
#362
b01000001 2
#363
b01000000 2
#364
b00111110 2
#365
b00111101 2
#366
b01000100 2
#367
b00111110 2
#368
b01000010 2
#369
b01000001 2
#370
b01000100 2
#372
b01000011 2
#373
b01000100 2
#374
b01000000 2
#375
b01000111 2
#376
b01001010 2
#377
b01001110 2
#378
b01010000 2
#379
b01010001 2
#380
b01011010 2
#381
b01010111 2
#382
b01011110 2
#383
b01011001 2
#385
b01010001 2
#386
b01001010 2
#387
b01000101 2
#388
b00111101 2
#390
b00110010 2
#391
b00101110 2
#392
b00101111 2
#393
b00100111 2
#396
b00100101 2
#397
b00100100 2
#398
b00100010 2
#399
b00011111 2
#400
b00100000 2
#402
b00011100 2
#404
b00011101 2
#406
b00011100 2
#407
b00011010 2
#408
b00011101 2
#410
b00011111 2
#412
b00011100 2
#413
b00100001 2
#414
b00100100 2
#415
b00100101 2
#416
b00101010 2
#417
b00100111 2
#418
b00101000 2
#420
b00101011 2
#421
b00100111 2
#422
b00100110 2
#423
b00100011 2
#424
b00100010 2
#425
b00100011 2
#426
b00100001 2
#427
b00011111 2
#428
b00011110 2
#429
b00011111 2
#431
b00100010 2
#432
b00100100 2
#434
b00100111 2
#436
b00101100 2
#437
b00101010 2
#438
b00101011 2
#439
b00110000 2
#440
b00110011 2
#441
b00110100 2
#442
b00110111 2
#443
b00110101 2
#444
b00110110 2
#445
b00110001 2
#446
b00101111 2
#447
b00110010 2
#448
b00110110 2
#449
b00101110 2
#450
b00101100 2
#451
b00101011 2
#452
b00101100 2
#453
b00100111 2
#454
b00101000 2
#455
b00100111 2
#456
b00101000 2
#457
b00100110 2
#458
b00100101 2
#460
b00101001 2
#461
b00100100 2
#462
b00100111 2
#463
b00101100 2
#464
b00101111 2
#465
b00110100 2
#466
b00110101 2
#467
b00111001 2
#468
b00110111 2
#469
b00111010 2
#470
b00111011 2
#471
b01000011 2
#472
b01000010 2
#473
b01001001 2
#474
b01000111 2
#475
b01000110 2
#476
b01001010 2
#477
b01001100 2
#478
b01001011 2
#479
b01001110 2
#480
b01001100 2
#481
b01001111 2
#482
b01010010 2
#483
b01001110 2
#484
b01001100 2
#485
b01001000 2
#486
b01000101 2
#487
b01000011 2
#488
b00111010 2
#489
b00111000 2
#490
b00110110 2
#491
b00110100 2
#492
b00101110 2
#493
b00101111 2
#494
b00101110 2
#495
b00101011 2
#496
b00101010 2
#498
b00101011 2
#499
b00100111 2
#500
b00100110 2
#503
b00100111 2
#504
b00100100 2
#506
b00100110 2
#507
b00100100 2
#509
b00100011 2
#510
b00100100 2
#511
b00100010 2
#512
b00100110 2
#513
b00100100 2
#514
b00100010 2
#515
b00100110 2
#516
b00100101 2
#517
b00101000 2
#518
b00100110 2
#519
b00100111 2
#520
b00101011 2
#522
b00101111 2
#523
b00101110 2
#525
b00101111 2
#526
b00110010 2
#527
b00110001 2
#528
b00101111 2
#529
b00101110 2
#530
b00110011 2
#531
b00101110 2
#532
b00110001 2
#533
b00110000 2
#534
b00101110 2
#536
b00101011 2
#537
b00101010 2
#538
b00101011 2
#539
b00101001 2
#540
b00100101 2
#542
b00100001 2
#543
b00100000 2
#544
b00100010 2
#545
b00100001 2
#547
b00100000 2
#548
b00011111 2
#549
b00100000 2
#550
b00100001 2
#551
b00011111 2
#552
b00100000 2
#553
b00100011 2
#554
b00100001 2
#555
b00100101 2
#556
b00100111 2
#558
b00100110 2
#559
b00101010 2
#560
b00101011 2
#562
b00101111 2
#563
b00101101 2
#564
b00101110 2
#566
b00101011 2
#567
b00101110 2
#568
b00110010 2
#569
b00101110 2
#570
b00101011 2
#571
b00101101 2
#572
b00110010 2
#573
b00101010 2
#574
b00101110 2
#575
b00101101 2
#576
b00101000 2
#577
b00101010 2
#578
b00101100 2
#579
b00101001 2
#580
b00101000 2
#582
b00100111 2
#583
b00100100 2
#584
b00100101 2
#585
b00100110 2
#586
b00100010 2
#587
b00100011 2
#588
b00100010 2
#590
b00100101 2
#592
b00101000 2
#593
b00101010 2
#594
b00101001 2
#595
b00101101 2
#596
b00101100 2
#597
b00101101 2
#598
b00110101 2
#600
b00111001 2
#601
b00111010 2
#602
b00111101 2
#603
b01000000 2
#604
b00111111 2
#606
b00111101 2
#607
b01000011 2
#609
b00111110 2
#610
b01000011 2
#611
b01000000 2
#612
b01000010 2
#613
b01000011 2
#614
b01000001 2
#615
b01000000 2
#616
b00111101 2
#617
b00111011 2
#618
b00111001 2
#619
b00111000 2
#620
b00110101 2
#622
b00110100 2
#623
b00110001 2
#624
b00101111 2
#626
b00110001 2
#627
b00101110 2
#628
b00110001 2
#629
b00101111 2
#630
b00101110 2
#631
b00101011 2
#632
b00101001 2
#633
b00101010 2
#634
b00101011 2
#635
b00101010 2
#636
b00101000 2
#637
b00100101 2
#638
b00101001 2
#639
b00101010 2
#640
b00101001 2
#642
b00101011 2
#643
b00101000 2
#644
b00101100 2
#645
b00101000 2
#646
b00101100 2
#647
b00100111 2
#652
b01010110 2
#653
b01010000 2
#654
b01001101 2
#655
b01001111 2
#656
b01001010 2
#657
b01000100 2
#658
b00111111 2
#659
b01001011 2
#660
b01001001 2
#661
b01000111 2
#662
b01000110 2
#663
b01010011 2
#665
b01010100 2
#666
b01011000 2
#667
b01010110 2
#668
b01010100 2
#671
b01010101 2
#673
b01011000 2
#674
b01011010 2
#675
b01011000 2
#677
b01010100 2
#678
b01010001 2
#679
b01010111 2
#680
b01010001 2
#681
b01010011 2
#682
b01010110 2
#683
b01010100 2
#684
b01010010 2
#685
b01010110 2
#686
b01010100 2
#687
b01011010 2
#689
b01010100 2
#690
b01011000 2
#691
b01010101 2
#692
b01011001 2
#693
b01010111 2
#695
b01011100 2
#696
b01011010 2
#697
b01011100 2
#699
b01011011 2
#700
b01010111 2
#701
b01011111 2
#702
b01011101 2
#703
b01100011 2
#704
b01011111 2
#705
b01100100 2
#706
b01100001 2
#707
b01100010 2
#708
b01011111 2
#709
b01100010 2
#710
b01011110 2
#711
b01100110 2
#713
b01100100 2
#714
b01100011 2
#715
b01101010 2
#716
b01100111 2
#717
b01100011 2
#719
b01101000 2
#720
b01100000 2
#721
b01101000 2
#722
b01100011 2
#723
b01100100 2
#725
b01100011 2
#726
b01101000 2
#727
b01011111 2
#728
b01100000 2
#729
b01100011 2
#730
b01100100 2
#731
b01100011 2
#733
b01100001 2
#734
b01100100 2
#735
b01100110 2
#736
b01100001 2
#737
b01100011 2
#738
b01100100 2
#739
b01100101 2
#740
b01100011 2
#741
b01100010 2
#742
b01100001 2
#743
b01011111 2
#744
b01011110 2
#745
b01100010 2
#746
b01011101 2
#747
b01011111 2
#749
b01011100 2
#750
b01100000 2
#752
b01011011 2
#753
b01010111 2
#754
b01011001 2
#755
b01011010 2
#756
b01011000 2
#759
b01011011 2
#760
b01010110 2
#761
b01010111 2
#762
b01010110 2
#763
b01011010 2
#764
b01010011 2
#765
b01010101 2
#767
b01010110 2
#768
b01010010 2
#769
b01011000 2
#770
b01010111 2
#771
b01011001 2
#772
b01010100 2
#773
b01010111 2
#774
b01010110 2
#775
b01010010 2
#776
b01010100 2
#777
b01010111 2
#778
b01010110 2
#780
b01010111 2
#781
b01010110 2
#782
b01010100 2
#783
b01010101 2
#784
b01010011 2
#785
b01010010 2
#786
b01010100 2
#787
b01011011 2
#788
b01010110 2
#789
b01010101 2
#790
b01010100 2
#792
b01010110 2
#793
b01011000 2
#794
b01011001 2
#796
b01010111 2
#799
b01010101 2
#800
01
b01010011 2
#1120
11
#1121
b01010101 2
#1122
b01010100 2
#1123
b01010101 2
#1124
b01010010 2
#1125
b01010101 2
#1126
b01010010 2
#1127
b01010111 2
#1128
b01010110 2
#1129
b01011000 2
#1131
b01010110 2
#1132
b01010101 2
#1133
b01011001 2
#1134
b01010010 2
#1135
b01010101 2
#1137
b01010011 2
#1138
b01011000 2
#1139
b01011100 2
#1140
b01011010 2
#1141
b01010111 2
#1142
b01010110 2
#1143
b01010111 2
#1147
b01010100 2
#1148
b01011000 2
#1149
b01010110 2
#1150
b01010101 2
#1151
b01011010 2
#1152
b01010001 2
#1153
b01011010 2
#1154
b01010111 2
#1155
b01010100 2
#1156
b01010110 2
#1158
b01010001 2
#1159
b01011010 2
#1160
b01010110 2
#1161
b01011001 2
#1162
b01010111 2
#1164
b01010100 2
#1165
b01010101 2
#1166
b01011000 2
#1167
b01011001 2
#1169
b01011010 2
#1170
b01010101 2
#1171
b01011001 2
#1172
b01010111 2
#1173
b01010011 2
#1174
b01010100 2
#1175
b01011010 2
#1176
b01010100 2
#1177
b01011000 2
#1178
b01010101 2
#1179
b01010010 2
#1180
b01010101 2
#1181
b01010110 2
#1182
b01010100 2
#1183
b01010101 2
#1184
b01011011 2
#1185
b01011001 2
#1186
b01011000 2
#1187
b01010101 2
#1189
b01010110 2
#1191
b01010101 2
#1192
b01010111 2
#1194
b01010001 2
#1195
b01010101 2
#1197
b01010100 2
#1198
b01011000 2
#1199
b01010100 2
#1200
b01010010 2
#1201
b01010101 2
#1202
b01010111 2
#1203
b01010010 2
#1205
b01010101 2
#1206
b01001110 2
#1207
b01010100 2
#1208
b01010110 2
#1209
b01001101 2
#1212
b01010000 2
#1213
b01001110 2
#1214
b01001100 2
#1215
b01001010 2
#1216
b01001000 2
#1217
b01000110 2
#1218
b01000001 2
#1219
b00111101 2
#1220
b00111001 2
#1221
b00111000 2
#1222
b00110100 2
#1223
b00110010 2
#1224
b00101011 2
#1225
b00101001 2
#1226
b00100011 2
#1227
b00100010 2
#1228
b00100001 2
#1229
b00100000 2
#1230
b00100010 2
#1232
b00100011 2
#1233
b00011101 2
#1234
b00011011 2
#1235
b00010111 2
#1236
b00010110 2
#1237
b00010011 2
#1238
b00010010 2
#1239
b00010011 2
#1240
b00010010 2
#1242
b00010100 2
#1243
b00010111 2
#1244
b00011000 2
#1245
b00011001 2
#1246
b00011010 2
#1248
b00011011 2
#1249
b00011110 2
#1250
b00100000 2
#1251
b00100010 2
#1252
b00100101 2
#1254
b00100110 2
#1256
b00101000 2
#1257
b00101110 2
#1258
b00101010 2
#1260
b00101110 2
#1261
b00110000 2
#1262
b00101110 2
#1263
b00101100 2
#1264
b00101110 2
#1265
b00110000 2
#1267
b00101101 2
#1270
b00101011 2
#1271
b00101000 2
#1272
b00101011 2
#1273
b00101000 2
#1274
b00101100 2
#1275
b00101000 2
#1276
b00101001 2
#1278
b00101010 2
#1279
b00101001 2
#1280
b00100111 2
#1281
b00101101 2
#1282
b00101110 2
#1283
b00101111 2
#1284
b00110010 2
#1286
b00110001 2
#1287
b00101111 2
#1288
b00110000 2
#1289
b00101111 2
#1290
b00110001 2
#1291
b00110010 2
#1292
b00101101 2
#1293
b00110011 2
#1294
b00110010 2
#1295
b00101110 2
#1296
b00101111 2
#1297
b00110010 2
#1298
b00101110 2
#1299
b00101100 2
#1300
b00101111 2
#1301
b00101100 2
#1302
b00101110 2
#1303
b00110010 2
#1304
b00101100 2
#1305
b00110000 2
#1308
b00101111 2
#1310
b00101011 2
#1311
b00101111 2
#1312
b00110000 2
#1313
b00110001 2
#1314
b00101110 2
#1315
b00101111 2
#1316
b00110000 2
#1317
b00101101 2
#1318
b00101110 2
#1319
b00110010 2
#1320
b00101110 2
#1321
b00110000 2
#1322
b00101111 2
#1323
b00101110 2
#1324
b00101101 2
#1325
b00101110 2
#1326
b00101111 2
#1327
b00101100 2
#1329
b00101011 2
#1330
b00101010 2
#1331
b00100111 2
#1332
b00101000 2
#1333
b00101010 2
#1335
b00101100 2
#1336
b00101001 2
#1337
b00101101 2
#1338
b00101010 2
#1340
b00101011 2
#1341
b00101101 2
#1342
b00101011 2
#1343
b00101010 2
#1344
b00100111 2
#1345
b00101001 2
#1349
b00100110 2
#1351
b00100101 2
#1352
b00100111 2
#1354
b00101000 2
#1355
b00100111 2
#1356
b00101000 2
#1357
b00101010 2
#1359
b00101110 2
#1360
b00101111 2
#1361
b00110011 2
#1362
b00110001 2
#1363
b00101111 2
#1364
b00110010 2
#1365
b00110001 2
#1366
b00110000 2
#1367
b00101111 2
#1368
b00110001 2
#1369
b00101101 2
#1370
b00110001 2
#1371
b00110100 2
#1372
b00110001 2
#1373
b00110100 2
#1374
b00110010 2
#1375
b00110001 2
#1376
b00110010 2
#1379
b00110111 2
#1380
b00111000 2
#1381
b00111001 2
#1382
b00111010 2
#1383
b00111011 2
#1385
b00111101 2
#1386
b00111110 2
#1387
b00111011 2
#1388
b00111001 2
#1389
b00111100 2
#1390
b00110111 2
#1391
b00111100 2
#1392
b00110111 2
#1393
b00110110 2
#1394
b00110101 2
#1396
b00110100 2
#1397
b00110111 2
#1398
b00111010 2
#1399
b00111001 2
#1400
b00111010 2
#1401
b00111100 2
#1402
b00111010 2
#1403
b00111001 2
#1404
b00111100 2
#1405
b00111010 2
#1407
b00111101 2
#1408
b00111001 2
#1409
b00111110 2
#1412
b01000000 2
#1413
b00111110 2
#1414
b00111111 2
#1415
b01000000 2
#1416
b00111011 2
#1417
b00111110 2
#1418
b01000100 2
#1420
b01000110 2
#1421
b01000011 2
#1422
b01000010 2
#1423
b01000011 2
#1424
b01000100 2
#1425
b01000111 2
#1426
b01001011 2
#1427
b01000111 2
#1428
b01001000 2
#1429
b01001011 2
#1430
b01001111 2
#1431
b01010000 2
#1432
b01010010 2
#1433
b01010110 2
#1434
b01011100 2
#1435
b01100011 2
#1436
b01011100 2
#1437
b01011011 2
#1438
b01011001 2
#1439
b01010000 2
#1440
b01001011 2
#1441
b01001000 2
#1442
b01000011 2
#1443
b00111110 2
#1444
b00110100 2
#1445
b00101101 2
#1446
b00101100 2
#1447
b00110001 2
#1448
b00100111 2
#1450
b00100100 2
#1451
b00100101 2
#1452
b00100000 2
#1453
b00011111 2
#1454
b00100000 2
#1456
b00011011 2
#1457
b00011110 2
#1458
b00011101 2
#1459
b00011110 2
#1460
b00011100 2
#1461
b00011101 2
#1463
b00011111 2
#1464
b00011110 2
#1465
b00100000 2
#1466
b00011110 2
#1467
b00100000 2
#1468
b00100010 2
#1470
b00100100 2
#1471
b00101000 2
#1472
b00101011 2
#1473
b00101010 2
#1474
b00101001 2
#1476
b00100110 2
#1477
b00100101 2
#1478
b00100100 2
#1479
b00100001 2
#1480
b00011111 2
#1481
b00011101 2
#1482
b00100001 2
#1483
b00011100 2
#1484
b00011110 2
#1485
b00011111 2
#1486
b00100010 2
#1487
b00100011 2
#1488
b00100111 2
#1489
b00101001 2
#1490
b00101110 2
#1491
b00101101 2
#1492
b00110001 2
#1493
b00101101 2
#1494
b00110011 2
#1495
b00110101 2
#1496
b00111000 2
#1497
b00111001 2
#1498
b00110110 2
#1500
b00110011 2
#1501
b00110001 2
#1503
b00101100 2
#1504
b00101111 2
#1505
b00101101 2
#1506
b00101010 2
#1507
b00101000 2
#1508
b00100110 2
#1509
b00100011 2
#1510
b00100101 2
#1511
b00101000 2
#1512
b00100111 2
#1514
b00100110 2
#1515
b00100111 2
#1516
b00101101 2
#1517
b00101000 2
#1518
b00101111 2
#1519
b00110011 2
#1520
b00110110 2
#1521
b00111000 2
#1523
b00111100 2
#1524
b01000000 2
#1525
b01000010 2
#1526
b01000100 2
#1527
b01000011 2
#1528
b01001001 2
#1530
b01000111 2
#1531
b01000101 2
#1532
b01001011 2
#1533
b01001101 2
#1534
b01001001 2
#1535
b01001100 2
#1536
b01001011 2
#1537
b01001001 2
#1538
b01001010 2
#1539
b01001001 2
#1540
b01000010 2
#1541
b00111011 2
#1542
b00111000 2
#1543
b00110100 2
#1544
b00110010 2
#1545
b00110000 2
#1547
b00101111 2
#1548
b00101011 2
#1549
b00101010 2
#1550
b00101101 2
#1552
b00101000 2
#1553
b00101011 2
#1554
b00100101 2
#1555
b00100111 2
#1557
b00100101 2
#1558
b00100011 2
#1559
b00100100 2
#1561
b00100011 2
#1562
b00100101 2
#1563
b00100110 2
#1564
b00011101 2
#1565
b00100100 2
#1566
b00100111 2
#1567
b00100100 2
#1569
b00100110 2
#1570
b00101000 2
#1573
b00101011 2
#1574
b00101010 2
#1575
b00101100 2
#1576
b00101101 2
#1577
b00101100 2
#1578
b00101011 2
#1579
b00101111 2
#1580
b00110001 2
#1581
b00110010 2
#1582
b00101110 2
#1584
b00101111 2
#1585
b00101110 2
#1587
b00110000 2
#1588
b00101100 2
#1589
b00101110 2
#1590
b00101100 2
#1591
b00110000 2
#1592
b00101001 2
#1594
b00100110 2
#1595
b00100101 2
#1597
b00100010 2
#1598
b00100000 2
#1599
b00011111 2
#1600
b00100011 2
#1601
b00011111 2
#1602
b00011110 2
#1603
b00011101 2
#1604
b00011110 2
#1605
b00100001 2
#1606
b00011111 2
#1608
b00100011 2
#1609
b00100100 2
#1610
b00100110 2
#1611
b00101000 2
#1612
b00100110 2
#1613
b00101000 2
#1614
b00101010 2
#1615
b00101011 2
#1618
b00110001 2
#1619
b00101111 2
#1620
b00101101 2
#1621
b00101010 2
#1622
b00101110 2
#1623
b00101101 2
#1624
b00101011 2
#1625
b00101100 2
#1628
b00101101 2
#1629
b00101100 2
#1630
b00101011 2
#1631
b00101100 2
#1632
b00101001 2
#1633
b00101101 2
#1634
b00101011 2
#1635
b00100110 2
#1636
b00100111 2
#1637
b00100110 2
#1638
b00100101 2
#1639
b00100010 2
#1641
b00100101 2
#1642
b00100010 2
#1643
b00100100 2
#1644
b00100011 2
#1645
b00100110 2
#1646
b00100101 2
#1647
b00100110 2
#1648
b00101010 2
#1649
b00101100 2
#1651
b00101111 2
#1652
b00110001 2
#1653
b00110100 2
#1654
b00110101 2
#1655
b00111011 2
#1656
b00110110 2
#1657
b01000001 2
#1658
b00111110 2
#1659
b01000000 2
#1660
b00111110 2
#1661
b01000001 2
#1663
b01000010 2
#1666
b00111111 2
#1667
b01000001 2
#1669
b01000010 2
#1670
b00111110 2
#1671
b00111111 2
#1672
b00111000 2
#1673
b00110110 2
#1675
b00111000 2
#1676
b00110110 2
#1677
b00110100 2
#1678
b00110101 2
#1679
b00110001 2
#1681
b00101111 2
#1682
b00101110 2
#1684
b00101100 2
#1685
b00101010 2
#1687
b00101000 2
#1688
b00101100 2
#1689
b00101011 2
#1690
b00101000 2
#1691
b00101001 2
#1692
b00101010 2
#1693
b00101000 2
#1694
b00101100 2
#1695
b00101010 2
#1696
b00101011 2
#1697
b00101000 2
#1698
b00101100 2
#1700
b00101001 2
#1701
b00101110 2
#1702
b00101111 2
#1703
b00101011 2
#1704
b00101110 2
#1705
b00101001 2
#1706
b00101010 2
#1707
b00101000 2
#1708
b00100110 2
#1710
b00100100 2
#1711
b00100001 2
#1713
b00011111 2
#1714
b00011101 2
#1715
b00011100 2
#1716
b00011101 2
#1717
b00011011 2
#1719
b00011101 2
#1720
b00011001 2
#1721
b00011011 2
#1722
b00011110 2
#1723
b00011011 2
#1724
b00011010 2
#1725
b00011011 2
#1726
b00011101 2
#1728
b00011100 2
#1729
b00011101 2
#1732
b00011100 2
#1734
b00011101 2
#1735
b00011100 2
#1736
b00011011 2
#1737
b00011101 2
#1739
b00011100 2
#1740
b00011110 2
#1741
b00011011 2
#1742
b00011101 2
#1743
b00011110 2
#1744
b00011101 2
#1745
b00011100 2
#1746
b00011101 2
#1749
b00011010 2
#1750
b00011100 2
#1752
b00011010 2
#1753
b00011100 2
#1754
b00011011 2
#1755
b00011100 2
#1756
b00011011 2
#1757
b00011010 2
#1758
b00011000 2
#1759
b00011011 2
#1761
b00011100 2
#1762
b00011101 2
#1763
b00011010 2
#1764
b00011011 2
#1765
b00011100 2
#1766
b00011011 2
#1767
b00011010 2
#1768
b00011101 2
#1769
b00011110 2
#1770
b00011100 2
#1771
b00011101 2
#1772
b00011111 2
#1773
b00100001 2
#1775
b00100011 2
#1776
b00100001 2
#1777
b00100010 2
#1778
b00100001 2
#1779
b00100000 2
#1780
b00011110 2
#1781
b00011111 2
#1782
b00011101 2
#1783
b00011111 2
#1784
b00011101 2
#1785
b00011100 2
#1786
b00011010 2
#1787
b00011101 2
#1789
b00011011 2
#1792
b00011100 2
#1793
b00011011 2
#1794
b00011101 2
#1795
b00011100 2
#1796
b00011011 2
#1797
b00011100 2
#1800
b00011010 2
#1801
b00011001 2
#1804
b00011000 2
#1806
b00011001 2
#1807
b00011010 2
#1808
b00010111 2
#1809
b00011010 2
#1810
b00011001 2
#1811
b00011000 2
#1813
b00011001 2
#1815
b00011010 2
#1816
b00011001 2
#1817
b00011010 2
#1818
b00011000 2
#1819
b00011100 2
#1820
b00011001 2
#1821
b00011100 2
#1822
b00011001 2
#1823
b00011011 2
#1825
b00011110 2
#1826
b00100000 2
#1827
b00100011 2
#1828
b00101011 2
#1829
b00101000 2
#1830
b00101100 2
#1831
b00101111 2
#1832
b00101110 2
#1833
b00110001 2
#1834
b00110010 2
#1835
b00110110 2
#1836
b00110100 2
#1837
b00110101 2
#1839
b00111000 2
#1840
b00110110 2
#1841
b00110100 2
#1842
b00110001 2
#1843
b00110000 2
#1844
b00110010 2
#1845
b00110100 2
#1846
b00111001 2
#1847
b00110011 2
#1848
b00111000 2
#1849
b00111010 2
#1850
b00111001 2
#1851
b00111110 2
#1852
b00111101 2
#1853
b00111001 2
#1854
b00111110 2
#1855
b00111011 2
#1856
b00111100 2
#1857
b00111011 2
#1858
b00111101 2
#1859
b00111100 2
#1862
b00111000 2
#1863
b00111110 2
#1864
b00111111 2
#1865
b01000001 2
#1866
b00111011 2
#1867
b00111110 2
#1868
b01000001 2
#1869
b01000100 2
#1870
b01000011 2
#1871
b01001000 2
#1872
b01000100 2
#1873
b01000101 2
#1874
b01000110 2
#1875
b01000100 2
#1877
b01000111 2
#1878
b01000100 2
#1879
b01000001 2
#1880
b00111111 2
#1881
b00111110 2
#1882
b00111111 2
#1883
b01000101 2
#1884
b01000010 2
#1886
b01000111 2
#1887
b01001100 2
#1888
b01001110 2
#1889
b01001100 2
#1890
b01010010 2
#1891
b01010101 2
#1892
b01010111 2
#1893
b01010100 2
#1894
b01010101 2
#1895
b01010000 2
#1896
b01001011 2
#1897
b01001110 2
#1898
b01000100 2
#1899
b01001000 2
#1900
b01000111 2
#1902
b01001000 2
#1904
b01001100 2
#1906
b01001111 2
#1907
b01010001 2
#1908
b01001101 2
#1909
b01001111 2
#1911
b01010101 2
#1912
b01010000 2
#1913
b01001010 2
#1914
b01001101 2
#1915
b01001100 2
#1916
b01001000 2
#1918
b01000101 2
#1919
b01000110 2
#1920
b01001110 2
#1921
b01010011 2
#1922
b01001000 2
#1923
b01001100 2
#1924
b01001011 2
#1925
b01010110 2
#1926
b01001111 2
#1927
b01001110 2
#1928
b01001100 2
#1929
b01001101 2
#1931
b01001110 2
#1932
b01001000 2
#1933
b01000111 2
#1934
b01001010 2
#1935
b01000110 2
#1936
b01000100 2
#1937
b01001001 2
#1938
b01001011 2
#1939
b01010010 2
#1940
b01001110 2
#1941
b01010111 2
#1942
b01010101 2
#1943
b01001110 2
#1945
b01010010 2
#1946
b01010011 2
#1947
b01010101 2
#1948
b01010010 2
#1949
b01010101 2
#1950
b01011000 2
#1951
b01011010 2
#1952
b01010101 2
#1953
b01001111 2
#1954
b01010101 2
#1955
b01001010 2
#1956
b01001011 2
#1957
b01000111 2
#1958
b01001011 2
#1959
b01001111 2
#1960
b01001110 2
#1961
b01010000 2
