xidian_scale_fpga/ar0135_dvp_lvds/Efinity/la1_waveform.vcd
#0 $dumpon
$date today $end
$timescale 1 ns $end
$scope module top $end
$var wire 1 0 u_Sensor_Image_XYCrop/image_in_vsync $end
$var wire 1 1 u_Sensor_Image_XYCrop/image_out_vsync $end
$var wire 1 2 u_Sensor_Image_XYCrop/image_out_href $end
$var wire 1 3 u_Sensor_Image_XYCrop/image_in_href $end
$var wire 8 4 u_Sensor_Image_XYCrop/image_out_data $end
$var wire 8 5 u_Sensor_Image_XYCrop/image_in_data $end
$upscope $end
$enddefinitions $end
#0
$dumpvars
10
11
02
13
b00000000 4
b01000011 5
$end
#1
b00111110 5
#2
b00111011 5
#3
b00111101 5
#4
b00111100 5
#5
b01000000 5
#6
b01000010 5
#8
b01000100 5
#10
b01000101 5
#11
b01000011 5
#12
b01000001 5
#13
b01000100 5
#14
b01000001 5
#15
b00111111 5
#16
b01000000 5
#18
b00111111 5
#19
b01000001 5
#20
b00111111 5
#21
b01000000 5
#22
b01000001 5
#23
b00111111 5
#24
b01000010 5
#25
b00111111 5
#27
b01000101 5
#28
b01000010 5
#29
b01000101 5
#30
b01000001 5
#32
b01000010 5
#33
b00111110 5
#34
b01000100 5
#35
b01000101 5
#36
b01000010 5
#37
b01000001 5
#38
b00111110 5
#39
b01000101 5
#40
b01000011 5
#41
b01000100 5
#42
b01000001 5
#44
b01000011 5
#45
b01000001 5
#47
b01000100 5
#48
b01000000 5
#49
b01000010 5
#52
b01000110 5
#53
b01000011 5
#55
b01000010 5
#57
b01001001 5
#58
b01000100 5
#59
b01000101 5
#60
b01000011 5
#61
b01000101 5
#62
b01000011 5
#63
b01000110 5
#64
b01000011 5
#65
b01000101 5
#66
b01001011 5
#67
b01000101 5
#68
b01000110 5
#69
b01001000 5
#70
b01000111 5
#71
b01001000 5
#72
b01000011 5
#73
b01001000 5
#74
b01001100 5
#75
b01000101 5
#76
b01000110 5
#77
b00111111 5
#78
b01000001 5
#79
b01000010 5
#80
b01000000 5
#81
b01000101 5
#83
b01001000 5
#84
b01001001 5
#85
b01000011 5
#86
b01000111 5
#87
b01000100 5
#88
b01000111 5
#89
b01000011 5
#90
b01000100 5
#91
b01000110 5
#92
b01001001 5
#93
b01001000 5
#94
b01000111 5
#96
b01000100 5
#97
b01000001 5
#98
b01000111 5
#99
b01000011 5
#101
b01000010 5
#102
b01000110 5
#103
b01000100 5
#104
b01001011 5
#105
b01000101 5
#106
b01001000 5
#107
b01000111 5
#108
b01000011 5
#109
b01001001 5
#110
b01000011 5
#111
b01000101 5
#112
b01000010 5
#113
b01000100 5
#114
b01001011 5
#115
b01000111 5
#116
b01001000 5
#117
b01000100 5
#118
b01001001 5
#119
b01001000 5
#120
b01000101 5
#121
b01000111 5
#122
b01000101 5
#123
b01000110 5
#124
b01001000 5
#126
b01000100 5
#127
b01000101 5
#128
b01000110 5
#129
b01001010 5
#130
b01000101 5
#131
b01000100 5
#133
b01001001 5
#134
b01001010 5
#135
b01001000 5
#138
b01000110 5
#139
b01001001 5
#140
b01001101 5
#141
b01000111 5
#142
b01000110 5
#143
b01001100 5
#144
b01001010 5
#145
b01000101 5
#146
b00111110 5
#147
b00110011 5
#148
b00110010 5
#149
b00101010 5
#151
b00101110 5
#152
b00101010 5
#153
b00101001 5
#154
b00101011 5
#155
b00101000 5
#157
b00101010 5
#158
b00101000 5
#159
b00101011 5
#161
b00101101 5
#162
b00101011 5
#163
b00101001 5
#164
b00101010 5
#165
b00101101 5
#166
b00101010 5
#167
b00101011 5
#168
b00101010 5
#169
b00100111 5
#170
b00101101 5
#171
b00101010 5
#173
b00101001 5
#174
b00101011 5
#175
b00100111 5
#176
b00101100 5
#177
b00101101 5
#178
b00101010 5
#179
b00101110 5
#180
b00101010 5
#181
b00101001 5
#182
b00101100 5
#183
b00101010 5
#185
b00101011 5
#187
b00101010 5
#188
b00101001 5
#189
b00101100 5
#190
b00101101 5
#191
b00101010 5
#192
b00101100 5
#194
b00101101 5
#195
b00101111 5
#196
b00101010 5
#197
b00101100 5
#198
b00101101 5
#199
b00101100 5
#200
b00101011 5
#201
b00101100 5
#203
b00101110 5
#204
b00101100 5
#207
b00101010 5
#208
b00101011 5
#209
b00101110 5
#210
b00101100 5
#212
b00101001 5
#213
b00101101 5
#214
b00101011 5
#219
b00101101 5
#220
b00101100 5
#221
b00101001 5
#222
b00101011 5
#223
b00101101 5
#224
b00101100 5
#225
b00101010 5
#226
b00101011 5
#228
b00101101 5
#229
b00101011 5
#230
b00101100 5
#231
b00101011 5
#232
b00101110 5
#233
b00101011 5
#234
b00101100 5
#236
b00101011 5
#237
b00101100 5
#239
b00101010 5
#240
b00101101 5
#241
b00101011 5
#242
b00101101 5
#244
b00101001 5
#245
b00100110 5
#246
b00100100 5
#247
b00100010 5
#248
b00011100 5
#249
b00011000 5
#250
b00010101 5
#252
b00010010 5
#254
b00010100 5
#255
b00010011 5
#256
b00010010 5
#257
b00010100 5
#258
b00010011 5
#260
b00010100 5
#261
b00010110 5
#263
b00010100 5
#264
b00010011 5
#265
b00010010 5
#266
b00010011 5
#268
b00010010 5
#269
b00010001 5
#270
b00010010 5
#272
b00010100 5
#273
b00010011 5
#274
b00010001 5
#275
b00010010 5
#277
b00010001 5
#280
b00010010 5
#281
b00010000 5
#282
b00010001 5
#283
b00010011 5
#284
b00010001 5
#286
b00010010 5
#288
b00010011 5
#289
b00010000 5
#291
b00010001 5
#292
b00010010 5
#293
b00010001 5
#294
b00010000 5
#295
b00010001 5
#296
b00010000 5
#299
b00010001 5
#300
b00001111 5
#301
b00010000 5
#302
b00001111 5
#303
b00010001 5
#305
b00001111 5
#306
b00010010 5
#307
b00010011 5
#308
b00010010 5
#309
b00010100 5
#311
b00010101 5
#312
b00010111 5
#314
b00011001 5
#315
b00011000 5
#316
b00011001 5
#317
b00011010 5
#318
b00011100 5
#319
b00011110 5
#320
b00011111 5
#321
b00100000 5
#323
b00100011 5
#325
b00100001 5
#326
b00100010 5
#327
b00100100 5
#328
b00100111 5
#329
b00100100 5
#331
b00100101 5
#332
b00100110 5
#333
b00101000 5
#335
b00100101 5
#336
b00101010 5
#338
b00101100 5
#339
b00101010 5
#340
b00101100 5
#341
b00101010 5
#343
b00101110 5
#344
b00101011 5
#348
b00101100 5
#350
b00101111 5
#351
b00101110 5
#352
b00101100 5
#353
b00101111 5
#355
b00101101 5
#356
b00101011 5
#357
b00101111 5
#359
b00101110 5
#360
b00110010 5
#361
b00101110 5
#362
b00101100 5
#363
b00101111 5
#364
b00101110 5
#366
b00110000 5
#368
b00110001 5
#369
b00110000 5
#370
b00110001 5
#373
b00110011 5
#374
b00110001 5
#375
b00110011 5
#376
b00110001 5
#377
b00110000 5
#381
b00110001 5
#382
b00110011 5
#384
b00110000 5
#385
b00110011 5
#386
b00110010 5
#387
b00110000 5
#388
b00110100 5
#390
b00110010 5
#391
b00110001 5
#392
b00110010 5
#393
b00101110 5
#394
b00110011 5
#395
b00110000 5
#397
b00110010 5
#399
b00110101 5
#400
b00110001 5
#401
b00110011 5
#402
b00110001 5
#404
b00110100 5
#405
b00110011 5
#406
b00110101 5
#407
b00110100 5
#408
b00110011 5
#409
b00101111 5
#410
b00110010 5
#411
b00110011 5
#412
b00110010 5
#413
b00110000 5
#414
b00110011 5
#415
b00110001 5
#416
b00110011 5
#417
b00110100 5
#419
b00110011 5
#420
b00110101 5
#421
b00110111 5
#422
b00110011 5
#423
b00110100 5
#424
b00110110 5
#425
b00110111 5
#426
b00110101 5
#427
b00110110 5
#428
b00111001 5
#430
b00110011 5
#431
b00110111 5
#432
b00110100 5
#433
b00110111 5
#434
b00110101 5
#435
b00111000 5
#436
b00110110 5
#437
b00110011 5
#438
b00110101 5
#439
b00111010 5
#440
b00110111 5
#443
b00110011 5
#444
b00111000 5
#445
b00111011 5
#446
b00111001 5
#447
b00111000 5
#448
b00110110 5
#449
b00110101 5
#450
b00111010 5
#452
b00111000 5
#453
b00111001 5
#454
b00110111 5
#455
b00111000 5
#456
b00110100 5
#457
b00111110 5
#458
b00111010 5
#459
b00110111 5
#460
b00110100 5
#461
b00110111 5
#462
b00110101 5
#463
b00110111 5
#464
b00111010 5
#465
b00111000 5
#468
b00110111 5
#469
b00111000 5
#470
b00111010 5
#471
b00111001 5
#472
b00111000 5
#473
b00111001 5
#474
b00111100 5
#475
b00111001 5
#476
b00110111 5
#477
b00111001 5
#478
b00110111 5
#479
b00111000 5
#480
b00110111 5
#481
b00111001 5
#482
b00110111 5
#483
b00110101 5
#485
b00110110 5
#486
b00111001 5
#487
b00111010 5
#488
b00111101 5
#489
b00111000 5
#491
b00111001 5
#492
b00110110 5
#493
b00110111 5
#495
b00110110 5
#496
b00111000 5
#497
b00110111 5
#499
b00111000 5
#500
b00110110 5
#501
b00110111 5
#503
b00111000 5
#504
b00111001 5
#505
b00110110 5
#506
b00111010 5
#507
b00111000 5
#508
b00110110 5
#509
b00111010 5
#510
b00110101 5
#511
b00110110 5
#512
b00111000 5
#513
b00110111 5
#514
b00111001 5
#516
b00111010 5
#517
b00110111 5
#518
b00111010 5
#519
b00110111 5
#520
b00111000 5
#523
b00110110 5
#524
b00110111 5
#526
b00111000 5
#527
b00110110 5
#528
b00111011 5
#529
b00111101 5
#530
b00111000 5
#531
b00111010 5
#532
b00111100 5
#533
b00111001 5
#534
b00110110 5
#535
b00111001 5
#536
b00111000 5
#537
b00111100 5
#538
b00111010 5
#540
b00111011 5
#541
b00111010 5
#542
b00111001 5
#543
b00111011 5
#544
b00111000 5
#545
b00111100 5
#546
b00111010 5
#547
b00111001 5
#548
b00111011 5
#549
b00110110 5
#550
b00111100 5
#552
b00111000 5
#553
b00111010 5
#554
b00111001 5
#556
b00111100 5
#557
b00111110 5
#558
b00111000 5
#559
b00111001 5
#560
b00111000 5
#561
b00111100 5
#563
b00111000 5
#564
b00111100 5
#565
b00111110 5
#566
b00111100 5
#567
b00111101 5
#568
b00111010 5
#569
b00110111 5
#571
b00111001 5
#572
b00111011 5
#573
b00111000 5
#574
b00110011 5
#575
b00101011 5
#576
b00100001 5
#577
b00011010 5
#578
b00010101 5
#579
b00010001 5
#580
b00010010 5
#581
b00010001 5
#582
b00010000 5
#584
b00010010 5
#585
b00001111 5
#586
b00010000 5
#590
b00010010 5
#592
b00010001 5
#593
b00010000 5
#596
b00001110 5
#598
b00001111 5
#599
b00001101 5
#600
b00001111 5
#603
b00010001 5
#604
b00001111 5
#605
b00010101 5
#606
b00011001 5
#607
b00011110 5
#608
b00100001 5
#609
b00101000 5
#610
b00100101 5
#612
b00100110 5
#613
b00101011 5
#614
b00101010 5
#615
b00101101 5
#616
b00101100 5
#617
b00101011 5
#618
b00101101 5
#619
b00110001 5
#620
b00101101 5
#621
b00101011 5
#622
b00101110 5
#623
b00101111 5
#624
b00101101 5
#625
b00101010 5
#626
b00101011 5
#627
b00101101 5
#628
b00101100 5
#630
b00101011 5
#631
b00101100 5
#632
b00101000 5
#633
b00101011 5
#634
b00101010 5
#636
b00101011 5
#637
b00101010 5
#639
b00101100 5
#640
b00101011 5
#641
b00101001 5
#642
b00101000 5
#643
b00101100 5
#645
b00101001 5
#646
b00100111 5
#647
b00101011 5
#648
b00100111 5
#649
b00101011 5
#650
b00100111 5
#651
b00101000 5
#652
b00100111 5
#653
b00101000 5
#654
b00101001 5
#655
b00100101 5
#656
b00100111 5
#657
b00100110 5
#659
b00100111 5
#660
b00100101 5
#661
b00101000 5
#662
b00100110 5
#663
b00100100 5
#664
b00100110 5
#665
b00100100 5
#666
b00100010 5
#667
b00100011 5
#668
b00100001 5
#669
b00100101 5
#670
b00100011 5
#671
b00100001 5
#672
b00100010 5
#673
b00100100 5
#674
b00100000 5
#675
b00100011 5
#676
b00100010 5
#677
b00100011 5
#678
b00011111 5
#679
b00100001 5
#680
b00100010 5
#681
b00100001 5
#683
b00100000 5
#684
b00011111 5
#685
b00100000 5
#686
b00100001 5
#688
b00011111 5
#690
b00011110 5
#691
b00011111 5
#692
b00011110 5
#693
03
b00000000 5
#3999
00
#4000
01
#4095
00
01
02
03
b00000000 4
b00000000 5
